Weather Records from Bureau of Meteorology
…
fallsCreekJulyWeather <- read_csv("src/R/data/IDCJDW3027.201907.csv", skip = 6, col_types = "-cddd--ficdi-fc-di-fc-",
                                  col_names = c("Date", "Min Temp", "Max Temp", "Rainfall (mm)", "Direction of maximum wind Gust", "Speed of maximum wind gust (km/h)", "Time of maximum wind gust", "9am Temperature", "9am relative humidity", "9am wind direction", "9am wind speed (km/h)", "3pm Temperature", "3pm relative humidity", "3pm wind direction", "3pm wind speed (km/h)"))

# Check whether fallsCreekJulyWeather is a data frame

is.data.frame(fallsCreekJulyWeather)

## [1] TRUE

#View the read-in output 

head(fallsCreekJulyWeather, 31)

## # A tibble: 31 x 15
##    Date  `Min Temp` `Max Temp` `Rainfall (mm)` `Direction of m~ `Speed of maxim~
##    <chr>      <dbl>      <dbl>           <dbl> <fct>                       <int>
##  1 1/7/~       -3.7       -0.8             1.6 NW                             24
##  2 2/7/~       -4.2       -0.2             0   NNW                            11
##  3 3/7/~       -3          1               0.8 SE                             24
##  4 4/7/~       -2.3        4.3             0.2 ESE                            19
##  5 5/7/~       -0.7        6.1             0   NNE                            28
##  6 6/7/~        1.3        6               0   NNW                            37
##  7 7/7/~        1.5        3.5             0   N                              61
##  8 8/7/~        1.5        2              17.6 N                              52
##  9 9/7/~       -2.5       -0.6             3.4 NNW                            54
## 10 10/7~       -2.1       -0.1             8.6 NW                             43
## # ... with 21 more rows, and 9 more variables: `Time of maximum wind
## #   gust` <chr>, `9am Temperature` <dbl>, `9am relative humidity` <int>, `9am
## #   wind direction` <fct>, `9am wind speed (km/h)` <chr>, `3pm
## #   Temperature` <dbl>, `3pm relative humidity` <int>, `3pm wind
## #   direction` <fct>, `3pm wind speed (km/h)` <chr>
…
Subsetting II

Subset the data frame including only first and the last variable in the data set, save it as an R object file (.RData). Below is the relevant R codes with explanations and outputs:

# Subset the dataset to include only the first and last variable  
subFallsCreekJulyWeather1and15 <- fallsCreekJulyWeather[,c(1,15)] 

# View this new subset, there are only 2 variables <columns> and 31 observations <rows> 
head(subFallsCreekJulyWeather1and15, 31)

## # A tibble: 31 x 2
##    Date       `3pm wind speed (km/h)`
##    <date>     <chr>                  
##  1 2019-07-01 7                      
##  2 2019-07-02 Calm                   
##  3 2019-07-03 Calm                   
##  4 2019-07-04 4                      
##  5 2019-07-05 9                      
##  6 2019-07-06 7                      
##  7 2019-07-07 19                     
##  8 2019-07-08 15                     
##  9 2019-07-09 24                     
## 10 2019-07-10 26                     
## # ... with 21 more rows
…
